{
    "impl" : {
	"mapCnt" : {
	    "_type": "MapContener",
	    "map": "cave",
	    "monsterScreen" : "onmonster",
	    "menu" : {
		"_type": "Menu",
		"init": "setTurnBaseTime",
		"links": [
		    {
			"_name": "newGame",
			"_type": "TextualLink",
			"text": "New Game",
			"link": {
			    "_name": "battleLink",
			    "_type": "DirectLink",
			    "link": "mapCnt"
			}
		    }
		]
	    }
	}
    }
}
