﻿{
    "impl" : {
	"scene7" : {
	    "_type": "TextScreen",
	    "text": "Vous vous précipitez à la rencontre de la poursuite et tentez d’intercepter le singe. Vous roulez et sol et luttez l’un avec l’autre au milieu des rochers. Vous terminez sur le dos et l’espèce de singe tente de vous mordre à la gorge, mais vous réussissez à le maintenir à l’écart. Vous luttez un moment avec lui et sentez les forces peu à peu vous faire défaut. Au moment où vous étiez sur le point de flancher, le singe s’effondre mollement sur vous de tout son poids. Vous apercevez derrière lui l’indigène qui était poursuivie, avec une grosse pierre dans la main. Visiblement elle vient de le frapper à la tête. Des bruits retentissent de la forêt et vous ne tardez pas à être entouré par une bande d’indigène, armés une fois encore de lances. La jeune femme leur parle brièvement dans leur dialecte et un des hommes vous fait signe de vous lever. Ils vous emmènent alors vers leur village, tout en pointant leurs lances sur vous. ",
	    "next": {
		"_type": "DirectLink",
		"link": "scene10Contener" // scene suivante
	    },
	    "background": " "
	}
    }
}
