﻿{
    "impl" : {
	"sceneXContener" : {
	    "_type": "Contener",
	    "type" : "vertical",
	    "elems": [
		{
		    "_name": "tSXCnt", // tSXCnt = TextScreen SceneX Content
		    "_type": "Content",
		    "occupedPourcent": 80,
		    "elem": {
			"_name": "tSX", // tSX = TextScreen SceneX 
			"_type": "TextScreen",
			"text" : "": {
			    "_type": "DirectLink",
			    "link": "tSX"
			}
		    }
		},
		{
		    "_type": "Content",
		    "occupedPourcent": 20,
		    "elem": {
			"_type": "Menu",
			"links" : {
			    "mSXTL1" : { // mSXTL1 = menu scene X text link 1
				"_type" : "TextualLink",
				"text": "",
				  "link": {
				  "_type": "IndirectLink",
				  "bind" : "sceneXContener",
				  "link": "sceneX2Contener"
				  }
			    },
			    "mSXTL2" : { // mSXTL2 = menu scene X text link 2
				"_type" : "TextualLink",
				"text": "",
				  "link": {
				  "_type": "IndirectLink",
				  "bind" : "sceneXContener",
				  "link": "sceneX2Contener"
				  }
			    },
			    "mSXTL3" : { // mSXTL3 = menu scene X text link 3
				"_type" : "TextualLink",
				"text": "",
				  "link": {
				  "_type": "IndirectLink",
				  "bind" : "sceneXContener",
				  "link": "sceneX2Contener"
				  }
			    }
			}
		    }
		}
	    ]
	}
    }
}
