﻿{
    "impl" : {
	"scene24Contener" : {
	    "_type": "Contener",
	    "type" : "vertical",
	    "elems": [
		{
		    "_name": "tS24Cnt", // tSXCnt = TextScreen SceneX Content
		    "_type": "Content",
		    "occupedPourcent": 80,
		    "elem": {
			"_name": "tS24", // tSX = TextScreen SceneX 
			"_type": "TextScreen",
			"text" : "Une fois libéré, vous vous massez les poignets de manières à rétablir la circulation sanguine en réfléchissant aux événements de cette nuit. Vous comprenez que les enlèvements sont dus à cette créature qui est capable de prendre l’apparence d’êtres humains. Vous vous dirigez alors vers le village pour pouvoir prévenir les habitants. En sortant, vous passez sous un fronton, dans des sortes de ruines. ": {
			    "_type": "DirectLink",
			    "link": "tS24"
			}
		    }
		},
		{
		    "_type": "Content",
		    "occupedPourcent": 20,
		    "elem": {
			"_type": "Menu",
			"links" : {
			    "mS24TL1" : { // mSXTL1 = menu scene X text link 1
				"_type" : "TextualLink",
				"text": "Cliquez ici si vous êtes passé devant ce fronton un peu plus tôt",
				  "link": {
				  "_type": "IndirectLink",
				  "bind" : "scene24Contener",
				  "link": "scene25Contener"
				  }
			    },
			    "mS24TL2" : { // mSXTL2 = menu scene X text link 2
				"_type" : "TextualLink",
				"text": "Cliquez ici si vous n'avez pas vu ce fronton",
				  "link": {
				  "_type": "IndirectLink",
				  "bind" : "scene24Contener",
				  "link": "scene26Contener"
				  }
			    }
			}
		    }
		}
	    ]
	}
    }
}
