﻿{
    "impl" : {
	"scene8" : {
	    "_type": "TextScreen",
	    "text": "Alors que vous regardez la scène, le singe finit par rattraper la jeune femme qui court et la plaque au sol. Ses cris finissent par cesser après un terrible craquement, probablement sa nuque. En entendant des bruits dans la forêt, l’animal s’enfuit. Un groupe d’indigènes armés de lances finit par faire irruption sur la plage et vous aperçoit. Quatre des indigènes se dirigent vers vous, pendant qu’un dernier s’approche du corps de la jeune indigène. Les hommes qui se dirigent vers vous ont l’air assez en colère et semble ne pas nourrir de bonnes intention à votre égard. Peut-être pensent-ils que vous avez tuez la jeune femme. Quoi qu’il en soit vous ne perdez pas de temps et tentez de leur échapper. Vous courrez en zigzagant à travers les rochers, poursuivis par des cris de rage. Une lance siffle au-dessus de votre tête, une deuxième passe à côté et s’éclate sur un rocher. Cependant votre chance ne dure pas et une lance vous transperce le dos. Une fois que les indigènes vous ont rattrapé, ils vous portent le coup de grâce.",
	    "next": {
		"_type": "DirectLink",
		"link": "quitLink"
	    },
	    "background": " "
	}
    }
}
