﻿{
    "impl" : {
	"scene29" : {
	    "_type": "TextScreen",
	    "text": "Vous arrivez devant le chef, le sorcier du village se tient à sa gauche. Le sorcier traduit les paroles du chef du village qui vous remercie de vous être occupé des disparitions et qui indique que la prophétie s’est réalisée. Il indique également qu’il serait honoré que vous épousiez sa fille. Il vous donne un bracelet en gage de remerciement, qui est censé repousser les mauvais esprits. Vous répondez alors au sorcier que la seule chose que vous désirez est de rentrer chez vous. Vous remerciez poliment le chef du village puis vous quittez la cahute, suivi du sorcier. Il vous indique qu’il va faire des recherches et qu’il verra pour vous renvoyer chez vous. Vous allez à l’infirmerie où vous vous faites soigner vos écorchures gagnées au cours de la nuit ainsi que la bosse sur votre crâne. Puis vous allez vous coucher.",
	    "next": {
		"_type": "DirectLink",
		"link": "scene30Contener" // scene suivante
	    },
	    "background": " "
	}
    }
}
