{
    "impl" : {
	"scene20Contener" : {
	    "_type": "Contener",
	    "type" : "vertical",
	    "elems": [
		{
		    "_name": "tS20Cnt", // tSXCnt = TextScreen SceneX Content
		    "_type": "Content",
		    "occupedPourcent": 80,
		    "elem": {
			"_name": "tS20", // tSX = TextScreen SceneX 
			"_type": "TextScreen",
			"text" : "Vous les suivez discrètement dans la forêt et là, vous apercevez les deux silhouettes que vous suivez s’enlacer dans ce qui semble être un geste tendre. Puis vous voyez le chef du village la plaquer au sol. La femme se met à hurler de ce qui semble être un cri de douleur et d’effroi, au moment où le chef approche son visage de son ventre.",
			"next": {
			    "_type": "DirectLink",
			    "link": "tS20"
			}
		    }
		},
		{
		    "_type": "Content",
		    "occupedPourcent": 20,
		    "elem": {
			"_type": "Menu",
			"links" : {
			    "mS20TL1" : { // mSXTL1 = menu scene X text link 1
				"_type" : "TextualLink",
				"text": "Vous allez aider la femme",
				  "link": {
				  "_type": "IndirectLink",
				  "bind" : "scene20Contener",
				  "link": "scene21Contener"
				  }
			    },
			    "mS20TL2" : { // mSXTL2 = menu scene X text link 2
				"_type" : "TextualLink",
				"text": "Vous retournez au village dire ce que vous avez vu",
				  "link": {
				  "_type": "IndirectLink",
				  "bind" : "scene20Contener",
				  "link": "scene22Contener"
				  }
			    }
			}
		    }
		}
	    ]
	}
    }
}
