{
    "impl" : {
	"scene11Contener" : {
	    "_type": "Contener",
	    "type" : "vertical",
	    "elems": [
		{
		    "_name": "tS11Cnt", // tSXCnt = TextScreen SceneX Content
		    "_type": "Content",
		    "occupedPourcent": 80,
		    "elem": {
			"_name": "tS11", // tSX = TextScreen SceneX 
			"_type": "TextScreen",
			"text" : "A votre réveil, un homme se tient assis non loin de vous. Il porte sur son corps des symboles étranges et ne porte pas de masque. Il attend quelques instants, le temps que vous émergiez complètement de votre sommeil puis vous demande si tout va bien. Vous lui répondez que tout va bien, puis vous vous rendez compte qu’il parle votre langue. Vous le pressez alors de questions et il vous répond qu’il répondra à vos questions en temps et en heure. Pour le moment, c’est à vous de l’écouter. Il ajoute que vous n’êtes pas ici par hasard, mais pour une raison bien précise. Il vous explique qu’actuellement des gens disparaissent régulièrement du village et qu’on ne les revoie plus. Récemment, en regardant le feu et en s’étant plongé dans une transe, il a eu une vision : celle d’un homme sortant de la mer et venant régler la situation. Cet homme avait vos traits.
Il vous laisse le temps de digérer ce qu’il vient de vous dire, puis reprends la parole. Il vous apprend que vous vous situez sur une île. Il n’est pas originaire de cette île, il l’a juste découverte par hasard et a décidé de s’y installer. Il a été accepté très vite et a été instruit par leur précédent chaman. Il quitte par la suite la cahute et un repas vous est amené. Vous digérez l’information, encore sous le choc de ce qui vient de vous être révélé.
",
			"next": {
			    "_type": "DirectLink",
			    "link": "tS11"
			}
		    }
		},
		{
		    "_type": "Content",
		    "occupedPourcent": 20,
		    "elem": {
			"_type": "Menu",
			"links" : {
			    "mS11TL1" : { // mSXTL1 = menu scene X text link 1
				"_type" : "TextualLink",
				"text": "Si vous avez sauvé l'indigène sur la plage, cliquez ici",
				  "link": {
				  "_type": "IndirectLink",
				  "bind" : "scene11Contener",
				  "link": "scene12Contener"
				  }
			    },
			    "mS11TL2" : { // mSXTL2 = menu scene X text link 2
				"_type" : "TextualLink",
				"text": "Si vous n'avez pas sauvé l'indigène, cliquez ici",
				  "link": {
				  "_type": "IndirectLink",
				  "bind" : "scene11Contener",
				  "link": "scene13Contener"
				  }
			    }
			}
		    }
		}
	    ]
	}
    }
}
