{
    "impl" : {
	"scene21" : {
	    "_type": "TextScreen",
	    "text": "Vous avez décidé de vous battre courageusement contre le chef, qui vient visiblement de dévorer une partie de l’abdomen de la jeune femme. Vous lui faite face, une lance à la main et tentez de l’éloigner de sa victime. Vous vous rendez vite compte  qu’elle n’est plus en vie. Le chef se tient face à vous, prêt à réagir. Vous ne pouvez pas fuir, au risque de lui tourner le dos. Le chaman derrière vous crie de vous pousser sur le côté, ce que vous faites aussitôt. Une lance vous frôle et va en direction du chef, qui dans un mouvement presque surhumain se place de côté et attrape la lance. Il l’envoie derrière vous et vous entendez un gargouillis étranglé. Vous supposez que le chaman vient d’être touché. Vous décidez de porter quelques coups d’estoc mais le chef est plus rapide et il évite tous vos coups. Au bout d’un moment il bloque la lance, la tire un peu vers lui et la brise, ne vous laissant plus qu’un bout de bois. Il se jette sur vous, vous plaque au sol. Vous luttez un moment mais il est plus fort que vous. Il finit par planter ses dents dans votre gorge et l’ouvre d’un coup sec. ",
	    "next": {
		"_type": "DirectLink",
		"link": "quitLink"
	    },
	    "background": " "
	}
    }
}
