{
    "impl" : {
	"mapCnt" : {
	    "_type": "Contener",
	    "type" : "vertical",
	    "elems": [
		{
		    "_type": "Content",
		    "occupedPourcent": 80,
		    "elem" : "cave"
		},
		{
		    "_type": "Content",
		    "occupedPourcent": 20,
		    "elem": {
			"_type": "TextScreen",
			"text" : "Welcom to YIRL !",
			"_name": "mapTextScreen"
		    }
		}
	    ]
	}
    }
}
