{
    "impl":{
	"spritesManager" : { 
	    "_type" : "SpriteManager",
	    "_tryopen" : ["sprites"],
 	    "sprites" : [
		{
		    "_type" : "SpriteDescription",
		    "id" : 8,
		    "path" : "./Content/Sprites/snake/head.png"
		},
		{
		    "_type" : "SpriteDescription",
		    "id" : 7,
		    "path" : "./Content/Sprites/snake/body.png"
		},
		{
		    "_type" : "SpriteDescription",
		    "id" : 6,
		    "path" : "./Content/Sprites/snake/bg.png"
		}

	    ]
	},
	"start": {
	    "_type": "Menu",
	    "links": [
		{
		    "_name": "newGame",
		    "_type": "TextualLink",
		    "text": "New Game",
		    "link": 
		    {
			"_name": "snakeLink",
			"_type": "DirectLink",
			"link": "snakeMapCnt"
		    }
		}
	    ],
	    "init": "setRealTime"
	}
    }
}
