{
    "impl" : {
	"snakeMapCnt" : {
	    "_type": "MapContener",
	    "map": "snakeMap",
	    "bottom" : {
		"_type": "TextScreen",
		"text" : "Welcome to Snake ! You have [globalSnake.score]",
		"_name": "snakeCntTxt" // bug if we remove the name
	    }
	}
    }
}
