{
    "dec" :  {
	"ImgScreen" : {
	    "inerit" : [
		"GameElem"
	    ],
	    /**
	     * The path of the Background img
	     */
	    "background" : "string",
	    /**
	     * What came after this screen
	     */
	    "next" : ["ref", "Link"]
	}
    }
}
