
----------------- SPRITES YIRL ----------------------

Sprites de type 'map-object' ---+

DIMENSIONS: 32x32px
FORMAT: .PNG
PLACEMENT : grille

Sprites de type 'object" -------+

DIMENSIONS : aléatoires
FORMAT: .PNG
PLACEMENT : libre sur les 'map-objects'

Coins / jointures manquants pout le moment